{
  "routes": [
    {
      "method": "GET",
      "path": "/deepcategories",
      "handler": "deepcategory.find",
      "config": {
        "policies": []
      }
    },
    {
      "method": "GET",
      "path": "/deepcategories/count",
      "handler": "deepcategory.count",
      "config": {
        "policies": []
      }
    },
    {
      "method": "GET",
      "path": "/deepcategories/:id",
      "handler": "deepcategory.findOne",
      "config": {
        "policies": []
      }
    },
    {
      "method": "POST",
      "path": "/deepcategories",
      "handler": "deepcategory.create",
      "config": {
        "policies": []
      }
    },
    {
      "method": "PUT",
      "path": "/deepcategories/:id",
      "handler": "deepcategory.update",
      "config": {
        "policies": []
      }
    },
    {
      "method": "DELETE",
      "path": "/deepcategories/:id",
      "handler": "deepcategory.delete",
      "config": {
        "policies": []
      }
    }
  ]
}
